Computer_tb.vcd
$date
	Thu May 14 23:29:00 2020
$end
$version
	Icarus Verilog
$end
$timescale
	1ps
$end
$scope module Computer_tb $end
$var wire 1 ! flash_ssb $end
$var wire 1 " flash_sck $end
$var wire 1 # flash_io1 $end
$var wire 1 $ flash_io0 $end
$var reg 1 % clk $end
$scope module computer $end
$var wire 1 & BTN_N $end
$var wire 1 % CLK $end
$var wire 1 ' P2_1 $end
$var wire 1 ( P2_3 $end
$var wire 1 ) clk_locked $end
$var wire 1 * reset $end
$var wire 1 + rom_ready $end
$var wire 16 , rom_address [15:0] $end
$var wire 16 - mem_wdata [15:0] $end
$var wire 16 . mem_rdata [15:0] $end
$var wire 1 / mem_load $end
$var wire 1 0 mem_busy $end
$var wire 16 1 mem_address [15:0] $end
$var wire 16 2 instruction [15:0] $end
$var wire 1 3 clk_out $end
$var wire 1 4 P1B8 $end
$var wire 1 5 P1B7 $end
$var wire 1 6 P1B4 $end
$var wire 1 7 P1B3 $end
$var wire 1 8 P1B2 $end
$var wire 1 9 P1B1 $end
$var wire 1 : P1A9 $end
$var wire 1 ; P1A8 $end
$var wire 1 < P1A7 $end
$var wire 1 = P1A4 $end
$var wire 1 > P1A3 $end
$var wire 1 ? P1A2 $end
$var wire 1 @ P1A10 $end
$var wire 1 A P1A1 $end
$var wire 1 B LEDG_N $end
$var wire 1 ! FLASH_SSB $end
$var wire 1 " FLASH_SCK $end
$var wire 1 # FLASH_IO1 $end
$var wire 1 $ FLASH_IO0 $end
$scope module clock $end
$var wire 1 ) locked $end
$var wire 1 3 out $end
$var wire 1 % refclk $end
$upscope $end
$scope module cpu $end
$var wire 1 3 clk $end
$var wire 1 C fast_mem $end
$var wire 1 D jump $end
$var wire 16 E mem_address [15:0] $end
$var wire 1 / mem_load $end
$var wire 16 F mem_wdata [15:0] $end
$var wire 1 * reset $end
$var wire 16 G mem_rdata [15:0] $end
$var wire 1 0 mem_busy $end
$var wire 16 H instruction [15:0] $end
$var wire 1 I i $end
$var wire 1 J alu_zero $end
$var wire 1 K alu_pos $end
$var wire 16 L alu_out [15:0] $end
$var wire 1 M alu_neg $end
$var wire 1 N a $end
$var reg 16 O a_reg [15:0] $end
$var reg 16 P alu_x [15:0] $end
$var reg 16 Q alu_y [15:0] $end
$var reg 1 R c1 $end
$var reg 1 S c2 $end
$var reg 1 T c3 $end
$var reg 1 U c4 $end
$var reg 1 V c5 $end
$var reg 1 W c6 $end
$var reg 1 X d1 $end
$var reg 1 Y d2 $end
$var reg 1 Z d3 $end
$var reg 16 [ d_reg [15:0] $end
$var reg 1 \ j1 $end
$var reg 1 ] j2 $end
$var reg 1 ^ j3 $end
$var reg 2 _ mem_wait [1:0] $end
$var reg 16 ` prog_counter [15:0] $end
$var reg 3 a state [2:0] $end
$scope module alu $end
$var wire 1 V f $end
$var wire 1 W no $end
$var wire 1 S nx $end
$var wire 1 U ny $end
$var wire 16 b x [15:0] $end
$var wire 16 c y [15:0] $end
$var wire 1 R zx $end
$var wire 1 T zy $end
$var wire 1 J zero $end
$var wire 16 d y_result [15:0] $end
$var wire 16 e x_result [15:0] $end
$var wire 16 f result [15:0] $end
$var wire 16 g out [15:0] $end
$var wire 1 M neg $end
$upscope $end
$upscope $end
$scope module memory $end
$var wire 16 h address [15:0] $end
$var wire 1 3 clk $end
$var wire 16 i in [15:0] $end
$var wire 16 j kbd_out [15:0] $end
$var wire 1 / load $end
$var wire 1 ( ps2_clk $end
$var wire 1 ' ps2_data $end
$var wire 1 k screen_select_0 $end
$var wire 1 4 vga_v_sync $end
$var wire 4 l vga_red [3:0] $end
$var wire 1 5 vga_h_sync $end
$var wire 4 m vga_green [3:0] $end
$var wire 4 n vga_blue [3:0] $end
$var wire 16 o screen_out [15:0] $end
$var wire 1 p ram_select_0 $end
$var wire 16 q ram_out [15:0] $end
$var wire 16 r out [15:0] $end
$var wire 1 0 busy $end
$var reg 1 s ram_select_1 $end
$var reg 1 t screen_select_1 $end
$scope module keyboard $end
$var wire 1 3 clk $end
$var wire 16 u out [15:0] $end
$var wire 1 ( ps2_clk $end
$var wire 1 ' ps2_data $end
$upscope $end
$scope module ram $end
$var wire 14 v address [13:0] $end
$var wire 1 3 clk $end
$var wire 16 w in [15:0] $end
$var wire 1 x load $end
$var wire 16 y out [15:0] $end
$scope module ram $end
$var wire 14 z ADDRESS [13:0] $end
$var wire 1 { CHIPSELECT $end
$var wire 1 3 CLOCK $end
$var wire 16 | DATAIN [15:0] $end
$var wire 4 } MASKWREN [3:0] $end
$var wire 1 ~ POWEROFF $end
$var wire 1 !" SLEEP $end
$var wire 1 "" STANDBY $end
$var wire 1 x WREN $end
$var wire 1 #" off $end
$var reg 16 $" DATAOUT [15:0] $end
$var integer 32 %" i [31:0] $end
$upscope $end
$upscope $end
$scope module screen $end
$var wire 1 3 clk $end
$var wire 13 &" vram_addr [12:0] $end
$var wire 16 '" vram_din [15:0] $end
$var wire 1 (" vram_load $end
$var wire 1 )" vram_p_read $end
$var wire 16 *" vram_p_dout [15:0] $end
$var wire 13 +" vram_p_addr [12:0] $end
$var wire 16 ," vram_dout [15:0] $end
$var wire 1 0 vram_busy $end
$var wire 1 4 vga_v_sync $end
$var wire 4 -" vga_red [3:0] $end
$var wire 1 5 vga_h_sync $end
$var wire 4 ." vga_green [3:0] $end
$var wire 4 /" vga_blue [3:0] $end
$scope module vga $end
$var wire 1 3 clk $end
$var wire 1 0" display $end
$var wire 1 1" h_display $end
$var wire 1 5 h_sync $end
$var wire 1 2" h_sync_pulse $end
$var wire 1 3" v_display $end
$var wire 1 4 v_sync $end
$var wire 1 4" v_sync_pulse $end
$var wire 1 )" vram_rden $end
$var wire 8 5" y [7:0] $end
$var wire 9 6" x [8:0] $end
$var wire 16 7" vram_rdata [15:0] $end
$var wire 13 8" vram_raddr [12:0] $end
$var wire 5 9" vram_offset [4:0] $end
$var wire 1 :" v_end $end
$var wire 4 ;" red [3:0] $end
$var wire 1 <" pixel $end
$var wire 1 =" h_end $end
$var wire 4 >" green [3:0] $end
$var wire 4 ?" blue [3:0] $end
$var reg 10 @" h_count [9:0] $end
$var reg 10 A" v_count [9:0] $end
$upscope $end
$scope module vram $end
$var wire 1 3 clk $end
$var wire 13 B" p_addr [12:0] $end
$var wire 1 )" p_read $end
$var wire 13 C" s_addr [12:0] $end
$var wire 1 0 s_busy $end
$var wire 16 D" s_din [15:0] $end
$var wire 1 (" s_write $end
$var wire 16 E" ram_dout [15:0] $end
$var reg 16 F" p_dout [15:0] $end
$var reg 1 G" p_read_1 $end
$var reg 1 H" p_read_2 $end
$var reg 14 I" ram_addr [13:0] $end
$var reg 16 J" ram_din [15:0] $end
$var reg 1 K" ram_write $end
$var reg 16 L" s_dout [15:0] $end
$scope module ram $end
$var wire 14 M" ADDRESS [13:0] $end
$var wire 1 N" CHIPSELECT $end
$var wire 1 3 CLOCK $end
$var wire 16 O" DATAIN [15:0] $end
$var wire 4 P" MASKWREN [3:0] $end
$var wire 1 Q" POWEROFF $end
$var wire 1 R" SLEEP $end
$var wire 1 S" STANDBY $end
$var wire 1 K" WREN $end
$var wire 1 T" off $end
$var reg 16 U" DATAOUT [15:0] $end
$var integer 32 V" i [31:0] $end
$upscope $end
$upscope $end
$upscope $end
$upscope $end
$scope module rom $end
$var wire 16 W" address [15:0] $end
$var wire 1 3 clk $end
$var wire 1 ) clken $end
$var wire 1 X" ram_write $end
$var wire 1 " spi_sclk $end
$var wire 1 $ spi_mosi $end
$var wire 1 # spi_miso $end
$var wire 1 ! spi_cs $end
$var wire 1 + ready $end
$var wire 1 Y" ram_select_0 $end
$var wire 16 Z" ram_din [15:0] $end
$var wire 16 [" ram_data_lo [15:0] $end
$var wire 16 \" ram_data_hi [15:0] $end
$var wire 14 ]" ram_addr [13:0] $end
$var wire 1 ^" loading $end
$var wire 16 _" instruction [15:0] $end
$var wire 1 `" flash_ready $end
$var wire 16 a" flash_data [15:0] $end
$var reg 1 b" ram_select_1 $end
$var reg 16 c" ram_waddr [15:0] $end
$scope module flash $end
$var wire 1 3 clk $end
$var wire 1 d" clken $end
$var wire 24 e" raddr [23:0] $end
$var wire 1 # spi_miso $end
$var reg 16 f" buffer [15:0] $end
$var reg 5 g" count [4:0] $end
$var reg 16 h" rdata [15:0] $end
$var reg 1 `" ready $end
$var reg 1 ! spi_cs $end
$var reg 1 $ spi_mosi $end
$var reg 1 " spi_sclk $end
$var reg 2 i" state [1:0] $end
$upscope $end
$scope module spram_hi $end
$var wire 14 j" ADDRESS [13:0] $end
$var wire 1 Y" CHIPSELECT $end
$var wire 1 3 CLOCK $end
$var wire 16 k" DATAIN [15:0] $end
$var wire 4 l" MASKWREN [3:0] $end
$var wire 1 m" POWEROFF $end
$var wire 1 n" SLEEP $end
$var wire 1 o" STANDBY $end
$var wire 1 X" WREN $end
$var wire 1 p" off $end
$var reg 16 q" DATAOUT [15:0] $end
$var integer 32 r" i [31:0] $end
$upscope $end
$scope module spram_lo $end
$var wire 14 s" ADDRESS [13:0] $end
$var wire 1 t" CHIPSELECT $end
$var wire 1 3 CLOCK $end
$var wire 16 u" DATAIN [15:0] $end
$var wire 4 v" MASKWREN [3:0] $end
$var wire 1 w" POWEROFF $end
$var wire 1 x" SLEEP $end
$var wire 1 y" STANDBY $end
$var wire 1 X" WREN $end
$var wire 1 z" off $end
$var reg 16 {" DATAOUT [15:0] $end
$var integer 32 |" i [31:0] $end
$upscope $end
$upscope $end
$upscope $end
$scope module flash $end
$var wire 1 ! spi_cs $end
$var wire 1 $ spi_mosi $end
$var wire 1 " spi_sclk $end
$var reg 8 }" count [7:0] $end
$var reg 1 # spi_miso $end
$var reg 1 ~" state $end
$upscope $end
$upscope $end
$enddefinitions $end
#0
$dumpvars
0~"
b0 }"
bx |"
bx {"
0z"
0y"
0x"
1w"
b1111 v"
bx u"
1t"
b0 s"
bx r"
bx q"
0p"
0o"
0n"
1m"
b1111 l"
bx k"
b0 j"
b1 i"
bx h"
b10000 g"
b1100010000 f"
b100000000000000000000 e"
1d"
b0 c"
0b"
bx a"
0`"
b0 _"
1^"
b0 ]"
bx \"
bx ["
bx Z"
0Y"
0X"
b0 W"
bx V"
bx U"
0T"
0S"
0R"
1Q"
b1111 P"
bx O"
1N"
b0xxxxxxxxxxxxx M"
bx L"
0K"
bx J"
b0xxxxxxxxxxxxx I"
xH"
0G"
bx F"
bx E"
bx D"
b0 C"
b0 B"
b0 A"
b1 @"
b0 ?"
b0 >"
0="
0<"
b0 ;"
0:"
b0 9"
b0 8"
bx 7"
b0 6"
b0 5"
04"
03"
02"
01"
00"
b0 /"
b0 ."
b0 -"
bx ,"
b0 +"
bx *"
0)"
0("
bx '"
b0 &"
bx %"
bx $"
0#"
0""
0!"
1~
b1111 }
bx |
1{
b0 z
bx y
0x
bx w
b0 v
b0 u
xt
xs
bx r
bx q
1p
bx o
b0 n
b0 m
b0 l
0k
b0 j
bx i
b0 h
bx g
bx f
bx e
bx d
bx c
bx b
b0 a
b0 `
b0 _
x^
x]
x\
b0 [
xZ
xY
xX
xW
xV
xU
xT
xS
xR
bx Q
bx P
b0 O
0N
xM
bx L
xK
xJ
0I
b0 H
bx G
bx F
b0 E
xD
1C
1B
0A
0@
0?
0>
0=
0<
0;
0:
09
08
07
06
15
14
13
b0 2
b0 1
00
0/
bx .
bx -
b0 ,
0+
1*
1)
z(
z'
1&
1%
x$
0#
0"
0!
$end
#5000
03
0%
#10000
b1 }"
b1111 g"
b11000100000 f"
1"
0t
1s
0H"
b0 I"
b0 M"
b10 @"
13
1%
#15000
03
0%
#20000
b11 @"
0$
0"
13
1%
#25000
03
0%
#30000
b10 }"
b1110 g"
b110001000000 f"
1"
b100 @"
13
1%
#35000
03
0%
#40000
b101 @"
0"
13
1%
#45000
03
0%
#50000
b11 }"
b1101 g"
b1100010000000 f"
1"
b110 @"
13
1%
#55000
03
0%
#60000
b111 @"
0"
13
1%
#65000
03
0%
#70000
b100 }"
b1100 g"
b11000100000000 f"
1"
b1000 @"
13
1%
#75000
03
0%
#80000
b1001 @"
0"
13
1%
#85000
03
0%
#90000
b101 }"
b1011 g"
b110001000000000 f"
1"
b1010 @"
13
1%
#95000
03
0%
#100000
b1011 @"
0"
13
1%
#105000
03
0%
#110000
b110 }"
b1010 g"
b1100010000000000 f"
1"
b1100 @"
13
1%
#115000
03
0%
#120000
b1101 @"
1$
0"
13
1%
#125000
03
0%
#130000
b111 }"
b1001 g"
b1000100000000000 f"
1"
b1110 @"
13
1%
#135000
03
0%
#140000
b1111 @"
0"
13
1%
#145000
03
0%
#150000
b1000 }"
05
12"
b1000 g"
b1000000000000 f"
1"
b10000 @"
13
1%
#155000
03
0%
#160000
b10001 @"
0$
0"
13
1%
#165000
03
0%
#170000
b1001 }"
b111 g"
b10000000000000 f"
1"
b10010 @"
13
1%
#175000
03
0%
#180000
b10011 @"
0"
13
1%
#185000
03
0%
#190000
b1010 }"
b110 g"
b100000000000000 f"
1"
b10100 @"
13
1%
#195000
03
0%
#200000
b10101 @"
0"
13
1%
#205000
03
0%
#210000
b1011 }"
b101 g"
b1000000000000000 f"
1"
b10110 @"
13
1%
#215000
03
0%
#220000
b10111 @"
1$
0"
13
1%
#225000
03
0%
#230000
b1100 }"
b100 g"
b0 f"
1"
b11000 @"
13
1%
#235000
03
0%
#240000
b11001 @"
0$
0"
13
1%
#245000
03
0%
#250000
b1101 }"
b11 g"
1"
b11010 @"
13
1%
#255000
03
0%
#260000
b11011 @"
0"
13
1%
#265000
03
0%
#270000
b1110 }"
b10 g"
1"
b11100 @"
13
1%
#275000
03
0%
#280000
b11101 @"
0"
13
1%
#285000
03
0%
#290000
b1111 }"
b1 g"
1"
b11110 @"
13
1%
#295000
03
0%
#300000
b11111 @"
0"
13
1%
#305000
03
0%
#310000
b10000 }"
b0 g"
1"
b100000 @"
13
1%
#315000
03
0%
#320000
b100001 @"
b10 i"
b10000 g"
13
1%
#325000
03
0%
#330000
0"
b100010 @"
13
1%
#335000
03
0%
#340000
b10001 }"
b100011 @"
b1111 g"
1"
13
1%
#345000
03
0%
#350000
0"
b100100 @"
13
1%
#355000
03
0%
#360000
b10010 }"
b100101 @"
b1110 g"
1"
13
1%
#365000
03
0%
#370000
0"
b100110 @"
13
1%
#375000
03
0%
#380000
b10011 }"
b100111 @"
b1101 g"
1"
13
1%
#385000
03
0%
#390000
0"
b101000 @"
13
1%
#395000
03
0%
#400000
b10100 }"
b101001 @"
b1100 g"
1"
13
1%
#405000
03
0%
#410000
0"
b101010 @"
13
1%
#415000
03
0%
#420000
b10101 }"
b101011 @"
b1011 g"
1"
13
1%
#425000
03
0%
#430000
0"
b101100 @"
13
1%
#435000
03
0%
#440000
b10110 }"
b101101 @"
b1010 g"
1"
13
1%
#445000
03
0%
#450000
0"
b101110 @"
13
1%
#455000
03
0%
#460000
b10111 }"
b101111 @"
b1001 g"
1"
13
1%
#465000
03
0%
#470000
0"
b110000 @"
13
1%
#475000
03
0%
#480000
b11000 }"
b110001 @"
b1000 g"
1"
13
1%
#485000
03
0%
#490000
0"
b110010 @"
13
1%
#495000
03
0%
#500000
b11001 }"
b110011 @"
b111 g"
1"
13
1%
#505000
03
0%
#510000
0"
b110100 @"
13
1%
#515000
03
0%
#520000
b11010 }"
b110101 @"
b110 g"
1"
13
1%
#525000
03
0%
#530000
0"
b110110 @"
13
1%
#535000
03
0%
#540000
b11011 }"
b110111 @"
b101 g"
1"
13
1%
#545000
03
0%
#550000
0"
b111000 @"
13
1%
#555000
03
0%
#560000
b11100 }"
b111001 @"
b100 g"
1"
13
1%
#565000
03
0%
#570000
0"
b111010 @"
13
1%
#575000
03
0%
#580000
b11101 }"
b111011 @"
b11 g"
1"
13
1%
#585000
03
0%
#590000
0"
b111100 @"
13
1%
#595000
03
0%
#600000
b11110 }"
b111101 @"
b10 g"
1"
13
1%
#605000
03
0%
#610000
0"
b111110 @"
13
1%
#615000
03
0%
#620000
1~"
b0 }"
b111111 @"
b1 g"
1"
13
1%
#625000
03
0%
#630000
0"
b1000000 @"
13
1%
#635000
03
0%
#640000
b1 }"
b1000001 @"
b0 g"
1"
13
1%
#645000
03
0%
#650000
b11 i"
b10000 g"
b1000010 @"
13
1%
#655000
03
0%
#660000
b1000011 @"
0"
13
1%
#665000
03
0%
#670000
b10 }"
b1111 g"
1"
b1000100 @"
13
1%
#675000
03
0%
#680000
b1000101 @"
0"
13
1%
#685000
03
0%
#690000
b11 }"
b1110 g"
1"
b1000110 @"
13
1%
#695000
03
0%
#700000
b1000111 @"
0"
13
1%
#705000
03
0%
#710000
b100 }"
b1101 g"
1"
b1001000 @"
13
1%
#715000
03
0%
#720000
b1001001 @"
0"
13
1%
#725000
03
0%
#730000
b101 }"
b1100 g"
1"
b1001010 @"
13
1%
#735000
03
0%
#740000
b1001011 @"
0"
13
1%
#745000
03
0%
#750000
b110 }"
b1011 g"
1"
b1001100 @"
13
1%
#755000
03
0%
#760000
b1001101 @"
0"
13
1%
#765000
03
0%
#770000
b111 }"
b1010 g"
1"
b1001110 @"
13
1%
#775000
03
0%
#780000
b1001111 @"
0"
13
1%
#785000
03
0%
#790000
b1000 }"
b1001 g"
1"
b1010000 @"
13
1%
#795000
03
0%
#800000
b1010001 @"
0"
13
1%
#805000
03
0%
#810000
b1001 }"
b1000 g"
1"
b1010010 @"
13
1%
#815000
03
0%
#820000
b1010011 @"
0"
13
1%
#825000
03
0%
#830000
b1010 }"
b111 g"
1"
b1010100 @"
13
1%
#835000
03
0%
#840000
b1010101 @"
0"
13
1%
#845000
03
0%
#850000
b1011 }"
b110 g"
1"
b1010110 @"
13
1%
#855000
03
0%
#860000
b1010111 @"
0"
13
1%
#865000
03
0%
#870000
b1100 }"
b101 g"
1"
b1011000 @"
13
1%
#875000
03
0%
#880000
b1011001 @"
0"
13
1%
#885000
03
0%
#890000
b1101 }"
b100 g"
1"
b1011010 @"
13
1%
#895000
03
0%
#900000
b1011011 @"
0"
13
1%
#905000
03
0%
#910000
b1110 }"
b11 g"
1"
b1011100 @"
13
1%
#915000
03
0%
#920000
b1011101 @"
0"
13
1%
#925000
03
0%
#930000
b1111 }"
1#
b10 g"
1"
b1011110 @"
13
1%
#935000
03
0%
#940000
b1011111 @"
0"
13
1%
#945000
03
0%
#950000
b10000 }"
0#
b1 g"
b1 f"
1"
b1100000 @"
13
1%
#955000
03
0%
#960000
b1100001 @"
0"
13
1%
#965000
03
0%
#970000
b10001 }"
1#
b0 g"
b10 f"
1"
b1100010 @"
13
1%
#975000
03
0%
#980000
1X"
b10 Z"
b10 k"
b10 u"
b1100011 @"
1`"
b10 a"
b10 h"
b10000 g"
13
1%
#985000
03
0%
#990000
b1 ]"
b1 j"
b1 s"
0X"
b1 c"
0"
0`"
b1100100 @"
13
1%
#995000
03
0%
#1000000
b10010 }"
b1100101 @"
b1111 g"
b101 f"
1"
13
1%
#1005000
03
0%
#1010000
0"
b1100110 @"
13
1%
#1015000
03
0%
#1020000
b10011 }"
b1100111 @"
b1110 g"
b1011 f"
1"
13
1%
#1025000
03
0%
#1030000
0"
b1101000 @"
13
1%
#1035000
03
0%
#1040000
b10100 }"
0#
b1101001 @"
b1101 g"
b10111 f"
1"
13
1%
#1045000
03
0%
#1050000
0"
b1101010 @"
13
1%
#1055000
03
0%
#1060000
b10101 }"
1#
b1101011 @"
b1100 g"
b101110 f"
1"
13
1%
#1065000
03
0%
#1070000
0"
b1101100 @"
13
1%
#1075000
03
0%
#1080000
b10110 }"
b1101101 @"
b1011 g"
b1011101 f"
1"
13
1%
#1085000
03
0%
#1090000
0"
b1101110 @"
13
1%
#1095000
03
0%
#1100000
b10111 }"
0#
b1101111 @"
b1010 g"
b10111011 f"
1"
13
1%
#1105000
03
0%
#1110000
15
02"
0"
b1110000 @"
13
1%
#1115000
03
0%
#1120000
b11000 }"
b1110001 @"
b1001 g"
b101110110 f"
1"
13
1%
#1125000
03
0%
#1130000
0"
b1110010 @"
13
1%
#1135000
03
0%
#1140000
b11001 }"
b1110011 @"
b1000 g"
b1011101100 f"
1"
13
1%
#1145000
03
0%
#1150000
0"
b1110100 @"
13
1%
#1155000
03
0%
#1160000
b11010 }"
b1110101 @"
b111 g"
b10111011000 f"
1"
13
1%
#1165000
03
0%
#1170000
0"
b1110110 @"
13
1%
#1175000
03
0%
#1180000
b11011 }"
b1110111 @"
b110 g"
b101110110000 f"
1"
13
1%
#1185000
03
0%
#1190000
0"
b1111000 @"
13
1%
#1195000
03
0%
#1200000
b11100 }"
1#
b1111001 @"
b101 g"
b1011101100000 f"
1"
13
1%
#1205000
03
0%
#1210000
0"
b1111010 @"
13
1%
#1215000
03
0%
#1220000
b11101 }"
0#
b1111011 @"
b100 g"
b10111011000001 f"
1"
13
1%
#1225000
03
0%
#1230000
0"
b1111100 @"
13
1%
#1235000
03
0%
#1240000
b11110 }"
b1111101 @"
b11 g"
b101110110000010 f"
1"
13
1%
#1245000
03
0%
#1250000
0"
b1111110 @"
13
1%
#1255000
03
0%
#1260000
b11111 }"
b1111111 @"
b10 g"
b1011101100000100 f"
1"
13
1%
#1265000
03
0%
#1270000
1$
0"
b10000000 @"
13
1%
#1275000
03
0%
#1280000
b100000 }"
b10000001 @"
b1 g"
b111011000001000 f"
1"
13
1%
#1285000
03
0%
#1290000
0$
0"
b10000010 @"
13
1%
#1295000
03
0%
#1300000
b100001 }"
b10000011 @"
b0 g"
b1110110000010000 f"
1"
13
1%
#1305000
03
0%
#1310000
1X"
b1110110000010000 Z"
b1110110000010000 k"
b1110110000010000 u"
1`"
b1110110000010000 a"
b1110110000010000 h"
b10000 g"
b10000100 @"
13
1%
#1315000
03
0%
#1320000
b10 ]"
b10 j"
b10 s"
0X"
b10000101 @"
1$
0"
0`"
b10 c"
13
1%
#1325000
03
0%
#1330000
b100010 }"
b1111 g"
b1101100000100000 f"
1"
b10000110 @"
13
1%
#1335000
03
0%
#1340000
b10000111 @"
0"
13
1%
#1345000
03
0%
#1350000
b100011 }"
b1110 g"
b1011000001000000 f"
1"
b10001000 @"
13
1%
#1355000
03
0%
#1360000
b10001001 @"
0"
13
1%
#1365000
03
0%
#1370000
b100100 }"
b1101 g"
b110000010000000 f"
1"
b10001010 @"
13
1%
#1375000
03
0%
#1380000
b10001011 @"
0$
0"
13
1%
#1385000
03
0%
#1390000
b100101 }"
b1100 g"
b1100000100000000 f"
1"
b10001100 @"
13
1%
#1395000
03
0%
#1400000
b10001101 @"
1$
0"
13
1%
#1405000
03
0%
#1410000
b100110 }"
b1011 g"
b1000001000000000 f"
1"
b10001110 @"
13
1%
#1415000
03
0%
#1420000
b10001111 @"
0"
13
1%
#1425000
03
0%
#1430000
b100111 }"
b1010 g"
b10000000000 f"
1"
b10010000 @"
13
1%
#1435000
03
0%
#1440000
b10010001 @"
0$
0"
13
1%
#1445000
03
0%
#1450000
b101000 }"
b1001 g"
b100000000000 f"
1"
b10010010 @"
13
1%
#1455000
03
0%
#1460000
b10010011 @"
0"
13
1%
#1465000
03
0%
#1470000
b101001 }"
b1000 g"
b1000000000000 f"
1"
b10010100 @"
13
1%
#1475000
03
0%
#1480000
b10010101 @"
0"
13
1%
#1485000
03
0%
#1490000
b101010 }"
b111 g"
b10000000000000 f"
1"
b10010110 @"
13
1%
#1495000
03
0%
#1500000
b10010111 @"
0"
13
1%
#1505000
03
0%
#1510000
b101011 }"
b110 g"
b100000000000000 f"
1"
b10011000 @"
13
1%
#1515000
03
0%
#1520000
b10011001 @"
0"
13
1%
#1525000
03
0%
#1530000
b101100 }"
b101 g"
b1000000000000000 f"
1"
b10011010 @"
13
1%
#1535000
03
0%
#1540000
b10011011 @"
1$
0"
13
1%
#1545000
03
0%
#1550000
b101101 }"
b100 g"
b0 f"
1"
b10011100 @"
13
1%
#1555000
03
0%
#1560000
b10011101 @"
0$
0"
13
1%
#1565000
03
0%
#1570000
b101110 }"
b11 g"
1"
b10011110 @"
13
1%
#1575000
03
0%
#1580000
b10011111 @"
0"
13
1%
#1585000
03
0%
#1590000
b101111 }"
1#
b10 g"
1"
b10100000 @"
13
1%
#1595000
03
0%
#1600000
b10100001 @"
0"
13
1%
#1605000
03
0%
#1610000
b110000 }"
b1 g"
b1 f"
1"
b10100010 @"
13
1%
#1615000
03
0%
#1620000
b10100011 @"
0"
13
1%
#1625000
03
0%
#1630000
b110001 }"
b0 g"
b11 f"
1"
b10100100 @"
13
1%
#1635000
03
0%
#1640000
1X"
b11 Z"
b11 k"
b11 u"
b10100101 @"
1`"
b11 a"
b11 h"
b10000 g"
13
1%
#1645000
03
0%
#1650000
b11 ]"
b11 j"
b11 s"
0X"
b11 c"
0"
0`"
b10100110 @"
13
1%
#1655000
03
0%
#1660000
b110010 }"
b10100111 @"
b1111 g"
b111 f"
1"
13
1%
#1665000
03
0%
#1670000
0"
b10101000 @"
13
1%
#1675000
03
0%
#1680000
b110011 }"
b10101001 @"
b1110 g"
b1111 f"
1"
13
1%
#1685000
03
0%
#1690000
0"
b10101010 @"
13
1%
#1695000
03
0%
#1700000
b110100 }"
0#
b10101011 @"
b1101 g"
b11111 f"
1"
13
1%
#1705000
03
0%
#1710000
0"
b10101100 @"
13
1%
#1715000
03
0%
#1720000
b110101 }"
b10101101 @"
b1100 g"
b111110 f"
1"
13
1%
#1725000
03
0%
#1730000
0"
b10101110 @"
13
1%
#1735000
03
0%
#1740000
b110110 }"
b10101111 @"
b1011 g"
b1111100 f"
1"
13
1%
#1745000
03
0%
#1750000
0"
b10110000 @"
13
1%
#1755000
03
0%
#1760000
b110111 }"
b10110001 @"
b1010 g"
b11111000 f"
1"
13
1%
#1765000
03
0%
#1770000
0"
b10110010 @"
13
1%
#1775000
03
0%
#1780000
b111000 }"
b10110011 @"
b1001 g"
b111110000 f"
1"
13
1%
#1785000
03
0%
#1790000
0"
b10110100 @"
13
1%
#1795000
03
0%
#1800000
b111001 }"
1#
b10110101 @"
b1000 g"
b1111100000 f"
1"
13
1%
#1805000
03
0%
#1810000
0"
b10110110 @"
13
1%
#1815000
03
0%
#1820000
b111010 }"
0#
b10110111 @"
b111 g"
b11111000001 f"
1"
13
1%
#1825000
03
0%
#1830000
0"
b10111000 @"
13
1%
#1835000
03
0%
#1840000
b111011 }"
b10111001 @"
b110 g"
b111110000010 f"
1"
13
1%
#1845000
03
0%
#1850000
0"
b10111010 @"
13
1%
#1855000
03
0%
#1860000
b111100 }"
1#
b10111011 @"
b101 g"
b1111100000100 f"
1"
13
1%
#1865000
03
0%
#1870000
0"
b10111100 @"
13
1%
#1875000
03
0%
#1880000
b111101 }"
0#
b10111101 @"
b100 g"
b11111000001001 f"
1"
13
1%
#1885000
03
0%
#1890000
0"
b10111110 @"
13
1%
#1895000
03
0%
#1900000
b111110 }"
b10111111 @"
b11 g"
b111110000010010 f"
1"
13
1%
#1905000
03
0%
#1910000
0"
b11000000 @"
13
1%
#1915000
03
0%
#1920000
b111111 }"
b11000001 @"
b10 g"
b1111100000100100 f"
1"
13
1%
#1925000
03
0%
#1930000
1$
0"
b11000010 @"
13
1%
#1935000
03
0%
#1940000
b1000000 }"
b11000011 @"
b1 g"
b1111000001001000 f"
1"
13
1%
#1945000
03
0%
#1950000
0"
b11000100 @"
13
1%
#1955000
03
0%
#1960000
b1000001 }"
b11000101 @"
b0 g"
b1110000010010000 f"
1"
13
1%
#1965000
03
0%
#1970000
1X"
b1110000010010000 Z"
b1110000010010000 k"
b1110000010010000 u"
1`"
b1110000010010000 a"
b1110000010010000 h"
b10000 g"
b11000110 @"
13
1%
#1975000
03
0%
#1980000
b100 ]"
b100 j"
b100 s"
0X"
b11000111 @"
0"
0`"
b100 c"
13
1%
#1985000
03
0%
#1990000
b1000010 }"
b1111 g"
b1100000100100000 f"
1"
b11001000 @"
13
1%
#1995000
03
0%
#2000000
b11001001 @"
0"
13
1%
#2005000
03
0%
#2010000
b1000011 }"
b1110 g"
b1000001001000000 f"
1"
b11001010 @"
13
1%
#2015000
03
0%
#2020000
b11001011 @"
0"
13
1%
#2025000
03
0%
#2030000
b1000100 }"
b1101 g"
b10010000000 f"
1"
b11001100 @"
13
1%
#2035000
03
0%
#2040000
b11001101 @"
0$
0"
13
1%
#2045000
03
0%
#2050000
b1000101 }"
b1100 g"
b100100000000 f"
1"
b11001110 @"
13
1%
#2055000
03
0%
#2060000
b11001111 @"
0"
13
1%
#2065000
03
0%
#2070000
b1000110 }"
b1011 g"
b1001000000000 f"
1"
b11010000 @"
13
1%
#2075000
03
0%
#2080000
b11010001 @"
0"
13
1%
#2085000
03
0%
#2090000
b1000111 }"
b1010 g"
b10010000000000 f"
1"
b11010010 @"
13
1%
#2095000
03
0%
#2100000
b11010011 @"
0"
13
1%
#2105000
03
0%
#2110000
b1001000 }"
b1001 g"
b100100000000000 f"
1"
b11010100 @"
13
1%
#2115000
03
0%
#2120000
b11010101 @"
0"
13
1%
#2125000
03
0%
#2130000
b1001001 }"
b1000 g"
b1001000000000000 f"
1"
b11010110 @"
13
1%
#2135000
03
0%
#2140000
b11010111 @"
1$
0"
13
1%
#2145000
03
0%
#2150000
b1001010 }"
b111 g"
b10000000000000 f"
1"
b11011000 @"
13
1%
#2155000
03
0%
#2160000
b11011001 @"
0$
0"
13
1%
#2165000
03
0%
#2170000
b1001011 }"
b110 g"
b100000000000000 f"
1"
b11011010 @"
13
1%
#2175000
03
0%
#2180000
b11011011 @"
0"
13
1%
#2185000
03
0%
#2190000
b1001100 }"
b101 g"
b1000000000000000 f"
1"
b11011100 @"
13
1%
#2195000
03
0%
#2200000
b11011101 @"
1$
0"
13
1%
#2205000
03
0%
#2210000
b1001101 }"
b100 g"
b0 f"
1"
b11011110 @"
13
1%
#2215000
03
0%
